measurement/Newfile5.csv

X,CH1,CH2,Start,Increment,
Sequence,Volt,Volt,-1.400000e-02,2.000000e-05,
0,3.109375e+02,3.015625e+02,
1,3.171875e+02,3.078125e+02,
2,3.171875e+02,3.078125e+02,
3,3.109375e+02,3.015625e+02,
4,3.109375e+02,3.031250e+02,
5,3.187500e+02,3.078125e+02,
6,3.187500e+02,3.078125e+02,
7,1.093750e+01,1.562500e+00,
8,2.031250e+01,1.093750e+01,
9,1.250000e+01,3.125000e+00,
10,1.875000e+01,7.812500e+00,
11,1.093750e+01,1.562500e+00,
12,1.093750e+01,6.250000e+00,
13,1.718750e+01,0.000000e+00,
14,9.375000e+00,6.250000e+00,
15,1.718750e+01,0.000000e+00,
16,7.812500e+00,1.406250e+01,
17,2.031250e+01,-6.250000e+00,
18,1.562500e+01,4.687500e+00,
19,9.375000e+00,-1.562500e+00,
20,9.375000e+00,0.000000e+00,
21,3.140625e+02,3.281250e+02,
22,3.062500e+02,2.953125e+02,
23,3.140625e+02,3.015625e+02,
24,3.078125e+02,2.968750e+02,
25,3.140625e+02,3.031250e+02,
26,3.140625e+02,2.984375e+02,
27,3.078125e+02,3.046875e+02,
28,3.140625e+02,2.984375e+02,
29,3.078125e+02,3.046875e+02,
30,3.140625e+02,3.046875e+02,
31,1.250000e+01,1.562500e+00,
32,1.875000e+01,7.812500e+00,
33,1.093750e+01,1.562500e+00,
34,1.718750e+01,6.250000e+00,
35,9.375000e+00,0.000000e+00,
36,9.375000e+00,6.250000e+00,
37,1.718750e+01,0.000000e+00,
38,1.562500e+01,0.000000e+00,
39,7.812500e+00,4.687500e+00,
40,4.687500e+00,1.250000e+01,
41,1.718750e+01,-7.812500e+00,
42,6.250000e+00,-6.250000e+00,
43,1.875000e+01,9.375000e+00,
44,7.812500e+00,-1.562500e+00,
45,3.125000e+02,3.234375e+02,
46,3.015625e+02,2.906250e+02,
47,3.109375e+02,2.984375e+02,
48,3.031250e+02,2.937500e+02,
49,3.109375e+02,3.000000e+02,
50,3.046875e+02,2.953125e+02,
51,3.125000e+02,3.000000e+02,
52,3.125000e+02,3.015625e+02,
53,1.093750e+01,0.000000e+00,
54,1.875000e+01,7.812500e+00,
55,1.093750e+01,1.562500e+00,
56,1.718750e+01,6.250000e+00,
57,9.375000e+00,1.562500e+00,
58,1.718750e+01,4.687500e+00,
59,9.375000e+00,0.000000e+00,
60,9.375000e+00,0.000000e+00,
61,1.718750e+01,4.687500e+00,
62,1.562500e+01,3.125000e+00,
63,7.812500e+00,-1.562500e+00,
64,1.562500e+01,3.125000e+00,
65,7.812500e+00,-1.562500e+00,
66,4.687500e+00,1.406250e+01,
67,1.875000e+01,-7.812500e+00,
68,7.812500e+00,-1.562500e+00,
69,1.562500e+01,3.125000e+00,
70,7.812500e+00,-1.562500e+00,
71,3.484375e+02,3.203125e+02,
72,3.015625e+02,2.906250e+02,
73,3.093750e+02,2.968750e+02,
74,3.093750e+02,2.921875e+02,
75,3.015625e+02,2.984375e+02,
76,3.093750e+02,2.968750e+02,
77,9.375000e+00,-1.562500e+00,
78,1.718750e+01,6.250000e+00,
79,9.375000e+00,1.562500e+00,
80,9.375000e+00,4.687500e+00,
81,1.718750e+01,0.000000e+00,
82,9.375000e+00,4.687500e+00,
83,1.562500e+01,-1.562500e+00,
84,1.562500e+01,3.125000e+00,
85,7.812500e+00,-1.562500e+00,
86,1.562500e+01,-1.562500e+00,
87,7.812500e+00,3.125000e+00,
88,1.562500e+01,-1.562500e+00,
89,7.812500e+00,3.125000e+00,
90,1.562500e+01,1.406250e+01,
91,6.250000e+00,-7.812500e+00,
92,7.812500e+00,-1.562500e+00,
93,1.562500e+01,3.125000e+00,
94,7.812500e+00,3.125000e+00,
95,1.562500e+01,-3.125000e+00,
96,7.812500e+00,-3.125000e+00,
97,3.546875e+02,3.203125e+02,
98,3.078125e+02,2.953125e+02,
99,9.375000e+00,-3.125000e+00,
100,1.718750e+01,6.250000e+00,
101,9.375000e+00,0.000000e+00,
102,1.562500e+01,4.687500e+00,
103,9.375000e+00,0.000000e+00,
104,1.562500e+01,3.125000e+00,
105,9.375000e+00,-1.562500e+00,
106,1.562500e+01,3.125000e+00,
107,7.812500e+00,-1.562500e+00,
108,1.562500e+01,3.125000e+00,
109,7.812500e+00,-3.125000e+00,
110,7.812500e+00,3.125000e+00,
111,1.562500e+01,-3.125000e+00,
112,7.812500e+00,3.125000e+00,
113,1.562500e+01,-3.125000e+00,
114,1.562500e+01,-3.125000e+00,
115,7.812500e+00,3.125000e+00,
116,4.687500e+00,1.562500e+01,
117,1.718750e+01,-9.375000e+00,
118,4.687500e+00,-9.375000e+00,
119,1.718750e+01,6.250000e+00,
120,7.812500e+00,-3.125000e+00,
121,3.546875e+02,3.187500e+02,
122,3.046875e+02,2.937500e+02,
123,7.812500e+00,-6.250000e+00,
124,1.562500e+01,4.687500e+00,
125,9.375000e+00,-1.562500e+00,
126,9.375000e+00,3.125000e+00,
127,1.562500e+01,-1.562500e+00,
128,1.562500e+01,-1.562500e+00,
129,7.812500e+00,3.125000e+00,
130,1.562500e+01,3.125000e+00,
131,7.812500e+00,-3.125000e+00,
132,1.562500e+01,-1.562500e+00,
133,7.812500e+00,3.125000e+00,
134,7.812500e+00,3.125000e+00,
135,1.562500e+01,-3.125000e+00,
136,7.812500e+00,-3.125000e+00,
137,1.562500e+01,3.125000e+00,
138,1.406250e+01,1.562500e+00,
139,7.812500e+00,-3.125000e+00,
140,7.812500e+00,-3.125000e+00,
141,1.562500e+01,3.125000e+00,
142,4.687500e+00,-1.093750e+01,
143,1.718750e+01,1.562500e+01,
144,4.687500e+00,-1.093750e+01,
145,1.718750e+01,7.812500e+00,
146,3.546875e+02,3.171875e+02,
147,6.250000e+00,-7.812500e+00,
148,1.562500e+01,-1.562500e+00,
149,7.812500e+00,3.125000e+00,
150,7.812500e+00,-1.562500e+00,
151,1.562500e+01,3.125000e+00,
152,1.562500e+01,3.125000e+00,
153,7.812500e+00,-3.125000e+00,
154,7.812500e+00,-3.125000e+00,
155,1.562500e+01,3.125000e+00,
156,7.812500e+00,-3.125000e+00,
157,1.562500e+01,3.125000e+00,
158,7.812500e+00,1.562500e+00,
159,1.562500e+01,-3.125000e+00,
160,7.812500e+00,1.562500e+00,
161,1.562500e+01,-3.125000e+00,
162,7.812500e+00,-3.125000e+00,
163,1.562500e+01,3.125000e+00,
164,7.812500e+00,1.562500e+00,
165,1.562500e+01,-3.125000e+00,
166,7.812500e+00,-1.093750e+01,
167,1.562500e+01,1.562500e+01,
168,7.812500e+00,1.562500e+00,
169,1.562500e+01,-3.125000e+00,
170,4.687500e+00,-1.093750e+01,
171,2.031250e+01,6.250000e+00,
172,6.250000e+00,1.562500e+00,
173,1.562500e+01,-3.125000e+00,
174,7.812500e+00,1.562500e+00,
175,1.562500e+01,-3.125000e+00,
176,1.562500e+01,-3.125000e+00,
177,7.812500e+00,3.125000e+00,
178,7.812500e+00,1.562500e+00,
179,1.562500e+01,-3.125000e+00,
180,7.812500e+00,-3.125000e+00,
181,1.562500e+01,3.125000e+00,
182,7.812500e+00,-3.125000e+00,
183,1.562500e+01,3.125000e+00,
184,7.812500e+00,-3.125000e+00,
185,1.562500e+01,3.125000e+00,
186,7.812500e+00,-3.125000e+00,
187,1.562500e+01,3.125000e+00,
188,7.812500e+00,-3.125000e+00,
189,1.562500e+01,3.125000e+00,
190,7.812500e+00,1.562500e+00,
191,1.562500e+01,-3.125000e+00,
192,7.812500e+00,-3.125000e+00,
193,1.562500e+01,3.125000e+00,
194,7.812500e+00,9.375000e+00,
195,1.562500e+01,-1.562500e+01,
196,7.812500e+00,-3.125000e+00,
197,1.562500e+01,3.125000e+00,
198,6.250000e+00,-1.250000e+01,
199,1.718750e+01,7.812500e+00,
200,7.812500e+00,-3.125000e+00,
201,1.562500e+01,3.125000e+00,
202,7.812500e+00,-3.125000e+00,
203,1.562500e+01,3.125000e+00,
204,7.812500e+00,-3.125000e+00,
205,1.562500e+01,3.125000e+00,
206,7.812500e+00,1.562500e+00,
207,1.562500e+01,-3.125000e+00,
208,7.812500e+00,1.562500e+00,
209,1.562500e+01,-3.125000e+00,
210,7.812500e+00,1.562500e+00,
211,1.562500e+01,-3.125000e+00,
212,1.562500e+01,-3.125000e+00,
213,7.812500e+00,3.125000e+00,
214,7.812500e+00,-3.125000e+00,
215,1.562500e+01,3.125000e+00,
216,7.812500e+00,1.562500e+00,
217,1.562500e+01,-3.125000e+00,
218,1.562500e+01,7.812500e+00,
219,4.687500e+00,-1.406250e+01,
220,7.812500e+00,3.125000e+00,
221,1.562500e+01,-3.125000e+00,
222,1.562500e+01,1.562500e+00,
223,7.812500e+00,-3.125000e+00,
224,1.562500e+01,3.125000e+00,
225,7.812500e+00,-3.125000e+00,
226,7.812500e+00,-3.125000e+00,
227,1.562500e+01,3.125000e+00,
228,1.562500e+01,1.562500e+00,
229,7.812500e+00,-3.125000e+00,
230,7.812500e+00,-3.125000e+00,
231,1.562500e+01,3.125000e+00,
232,7.812500e+00,1.562500e+00,
233,1.562500e+01,-3.125000e+00,
234,7.812500e+00,-3.125000e+00,
235,1.562500e+01,3.125000e+00,
236,7.812500e+00,3.125000e+00,
237,1.562500e+01,-3.125000e+00,
238,7.812500e+00,1.562500e+00,
239,1.562500e+01,-3.125000e+00,
240,1.562500e+01,-3.125000e+00,
241,7.812500e+00,3.125000e+00,
242,1.562500e+01,7.812500e+00,
243,4.687500e+00,-1.406250e+01,
244,1.562500e+01,-3.125000e+00,
245,7.812500e+00,3.125000e+00,
246,7.812500e+00,-3.125000e+00,
247,3.546875e+02,3.312500e+02,
248,3.187500e+02,3.062500e+02,
249,6.250000e+00,-7.812500e+00,
250,9.375000e+00,-1.562500e+00,
251,1.562500e+01,3.125000e+00,
252,1.562500e+01,-1.562500e+00,
253,7.812500e+00,3.125000e+00,
254,1.562500e+01,3.125000e+00,
255,7.812500e+00,-3.125000e+00,
256,1.562500e+01,-1.562500e+00,
257,7.812500e+00,3.125000e+00,
258,1.562500e+01,3.125000e+00,
259,7.812500e+00,-3.125000e+00,
260,1.562500e+01,-1.562500e+00,
261,7.812500e+00,3.125000e+00,
262,1.562500e+01,3.125000e+00,
263,7.812500e+00,-3.125000e+00,
264,1.562500e+01,-3.125000e+00,
265,7.812500e+00,3.125000e+00,
266,1.562500e+01,-3.125000e+00,
267,7.812500e+00,3.125000e+00,
268,3.125000e+00,-1.406250e+01,
269,1.718750e+01,1.406250e+01,
270,1.562500e+01,-1.562500e+00,
271,7.812500e+00,3.125000e+00,
272,9.375000e+00,-3.125000e+00,
273,3.546875e+02,3.343750e+02,
274,3.234375e+02,3.109375e+02,
275,7.812500e+00,-4.687500e+00,
276,1.718750e+01,0.000000e+00,
277,9.375000e+00,4.687500e+00,
278,1.562500e+01,-1.562500e+00,
279,9.375000e+00,4.687500e+00,
280,1.562500e+01,3.125000e+00,
281,9.375000e+00,-1.562500e+00,
282,1.562500e+01,-1.562500e+00,
283,9.375000e+00,3.125000e+00,
284,1.562500e+01,-1.562500e+00,
285,7.812500e+00,3.125000e+00,
286,1.562500e+01,-1.562500e+00,
287,9.375000e+00,3.125000e+00,
288,9.375000e+00,-1.562500e+00,
289,1.562500e+01,3.125000e+00,
290,9.375000e+00,-1.562500e+00,
291,1.562500e+01,3.125000e+00,
292,1.562500e+01,-1.562500e+00,
293,7.812500e+00,3.125000e+00,
294,6.250000e+00,-7.812500e+00,
295,1.718750e+01,1.718750e+01,
296,1.562500e+01,-1.562500e+00,
297,7.812500e+00,3.125000e+00,
298,7.812500e+00,-1.562500e+00,
299,3.546875e+02,3.359375e+02,
300,3.250000e+02,3.125000e+02,
301,9.375000e+00,-3.125000e+00,
302,1.875000e+01,7.812500e+00,
303,1.093750e+01,1.562500e+00,
304,1.093750e+01,6.250000e+00,
305,1.718750e+01,0.000000e+00,
306,1.718750e+01,4.687500e+00,
307,9.375000e+00,0.000000e+00,
308,9.375000e+00,4.687500e+00,
309,1.718750e+01,-1.562500e+00,
310,1.562500e+01,3.125000e+00,
311,9.375000e+00,-1.562500e+00,
312,9.375000e+00,3.125000e+00,
313,1.562500e+01,-1.562500e+00,
314,9.375000e+00,3.125000e+00,
315,1.562500e+01,-1.562500e+00,
316,1.562500e+01,-1.562500e+00,
317,7.812500e+00,3.125000e+00,
318,6.250000e+00,1.718750e+01,
319,1.718750e+01,-9.375000e+00,
320,6.250000e+00,7.812500e+00,
321,1.875000e+01,-1.562500e+01,
322,9.375000e+00,-1.562500e+00,
323,3.546875e+02,3.375000e+02,
324,3.156250e+02,3.031250e+02,
325,3.218750e+02,3.109375e+02,
326,3.171875e+02,3.062500e+02,
327,3.250000e+02,3.125000e+02,
328,3.250000e+02,3.125000e+02,
329,1.093750e+01,-1.562500e+00,
330,1.875000e+01,7.812500e+00,
331,1.093750e+01,1.562500e+00,
332,1.875000e+01,6.250000e+00,
333,1.093750e+01,0.000000e+00,
334,1.718750e+01,6.250000e+00,
335,9.375000e+00,0.000000e+00,
336,1.718750e+01,4.687500e+00,
337,9.375000e+00,0.000000e+00,
338,9.375000e+00,4.687500e+00,
339,1.718750e+01,-1.562500e+00,
340,1.562500e+01,3.125000e+00,
341,9.375000e+00,-1.562500e+00,
342,1.562500e+01,3.125000e+00,
343,9.375000e+00,-1.562500e+00,
344,1.875000e+01,1.718750e+01,
345,4.687500e+00,-9.375000e+00,
346,1.562500e+01,9.375000e+00,
347,4.687500e+00,-1.406250e+01,
348,9.375000e+00,-1.562500e+00,
349,3.546875e+02,3.359375e+02,
350,3.156250e+02,3.031250e+02,
351,3.234375e+02,3.109375e+02,
352,3.171875e+02,3.062500e+02,
353,3.234375e+02,3.125000e+02,
354,3.234375e+02,3.078125e+02,
355,3.171875e+02,3.125000e+02,
356,3.234375e+02,3.125000e+02,
357,1.250000e+01,0.000000e+00,
358,1.875000e+01,7.812500e+00,
359,1.250000e+01,1.562500e+00,
360,1.875000e+01,6.250000e+00,
361,1.093750e+01,1.562500e+00,
362,1.718750e+01,6.250000e+00,
363,1.093750e+01,0.000000e+00,
364,1.718750e+01,4.687500e+00,
365,9.375000e+00,0.000000e+00,
366,1.718750e+01,4.687500e+00,
367,9.375000e+00,-1.562500e+00,
368,1.718750e+01,0.000000e+00,
369,9.375000e+00,4.687500e+00,
370,6.250000e+00,1.718750e+01,
371,1.875000e+01,-9.375000e+00,
372,6.250000e+00,-1.406250e+01,
373,1.453125e+02,1.328125e+02,
374,1.406250e+02,1.312500e+02,
375,3.218750e+02,3.234375e+02,
376,3.218750e+02,3.046875e+02,
377,3.140625e+02,3.109375e+02,
378,3.156250e+02,3.062500e+02,
379,3.234375e+02,3.125000e+02,
380,3.171875e+02,3.078125e+02,
381,3.234375e+02,3.125000e+02,
382,3.250000e+02,3.125000e+02,
383,1.250000e+01,1.562500e+00,
384,2.187500e+01,1.093750e+01,
385,1.406250e+01,4.687500e+00,
386,2.031250e+01,9.375000e+00,
387,1.250000e+01,3.125000e+00,
388,1.875000e+01,7.812500e+00,
389,1.093750e+01,1.562500e+00,
390,1.093750e+01,6.250000e+00,
391,1.875000e+01,1.562500e+00,
392,1.718750e+01,6.250000e+00,
393,1.093750e+01,0.000000e+00,
394,6.250000e+00,1.562500e+01,
395,1.875000e+01,-7.812500e+00,
396,1.718750e+01,4.687500e+00,
397,9.375000e+00,0.000000e+00,
398,9.375000e+00,0.000000e+00,
399,3.203125e+02,3.093750e+02,
400,3.250000e+02,3.125000e+02,
401,3.093750e+02,2.906250e+02,
402,3.140625e+02,3.046875e+02,
403,3.218750e+02,3.109375e+02,
404,3.156250e+02,3.109375e+02,
405,3.218750e+02,3.062500e+02,
406,3.156250e+02,3.062500e+02,
407,3.234375e+02,3.125000e+02,
408,3.218750e+02,3.078125e+02,
409,3.156250e+02,3.125000e+02,
410,3.218750e+02,3.125000e+02,
411,1.406250e+01,3.125000e+00,
412,2.187500e+01,1.250000e+01,
413,1.406250e+01,4.687500e+00,
414,2.031250e+01,9.375000e+00,
415,1.250000e+01,3.125000e+00,
416,1.875000e+01,7.812500e+00,
417,1.250000e+01,1.562500e+00,
418,1.875000e+01,1.562500e+00,
419,1.093750e+01,7.812500e+00,
420,7.812500e+00,1.562500e+01,
421,2.031250e+01,-7.812500e+00,
422,1.718750e+01,6.250000e+00,
423,1.093750e+01,0.000000e+00,
424,1.093750e+01,1.562500e+00,
425,3.187500e+02,3.093750e+02,
426,3.265625e+02,3.140625e+02,
427,3.093750e+02,2.906250e+02,
428,3.140625e+02,3.031250e+02,
429,3.218750e+02,3.093750e+02,
430,3.140625e+02,3.046875e+02,
431,3.218750e+02,3.109375e+02,
432,3.156250e+02,3.062500e+02,
433,3.218750e+02,3.109375e+02,
434,3.156250e+02,3.109375e+02,
435,3.218750e+02,3.062500e+02,
436,3.218750e+02,3.109375e+02,
437,1.406250e+01,4.687500e+00,
438,1.406250e+01,1.093750e+01,
439,2.187500e+01,4.687500e+00,
440,2.031250e+01,9.375000e+00,
441,1.250000e+01,3.125000e+00,
442,1.875000e+01,7.812500e+00,
443,1.093750e+01,1.562500e+00,
444,9.375000e+00,1.406250e+01,
445,2.031250e+01,-6.250000e+00,
446,1.093750e+01,6.250000e+00,
447,1.875000e+01,1.562500e+00,
448,1.093750e+01,1.562500e+00,
449,3.187500e+02,3.093750e+02,
450,3.109375e+02,3.000000e+02,
451,3.171875e+02,3.062500e+02,
452,3.125000e+02,3.015625e+02,
453,3.187500e+02,3.078125e+02,
454,3.093750e+02,3.140625e+02,
455,3.265625e+02,2.890625e+02,
456,3.140625e+02,3.046875e+02,
457,3.203125e+02,3.093750e+02,
458,3.203125e+02,3.093750e+02,
459,3.140625e+02,3.046875e+02,
460,3.203125e+02,3.046875e+02,
461,3.140625e+02,3.109375e+02,
462,3.203125e+02,3.046875e+02,
463,3.140625e+02,3.109375e+02,
464,3.203125e+02,3.109375e+02,
465,1.406250e+01,-1.718750e+01,
466,2.187500e+01,1.250000e+01,
467,1.406250e+01,4.687500e+00,
468,2.031250e+01,9.375000e+00,
469,1.250000e+01,3.125000e+00,
470,9.375000e+00,1.406250e+01,
471,2.031250e+01,-4.687500e+00,
472,1.875000e+01,7.812500e+00,
473,1.093750e+01,1.562500e+00,
474,1.093750e+01,1.562500e+00,
475,3.171875e+02,3.093750e+02,
476,3.093750e+02,3.000000e+02,
477,3.171875e+02,3.062500e+02,
478,3.109375e+02,3.015625e+02,
479,3.187500e+02,3.078125e+02,
480,3.125000e+02,3.031250e+02,
481,3.187500e+02,3.093750e+02,
482,3.250000e+02,3.140625e+02,
483,3.093750e+02,2.890625e+02,
484,3.125000e+02,3.093750e+02,
485,3.203125e+02,3.046875e+02,
486,3.203125e+02,3.046875e+02,
487,3.125000e+02,3.093750e+02,
488,3.125000e+02,3.093750e+02,
489,3.203125e+02,3.046875e+02,
490,3.125000e+02,3.046875e+02,
491,3.203125e+02,3.093750e+02,
492,3.203125e+02,3.093750e+02,
493,1.250000e+01,-1.406250e+01,
494,2.187500e+01,1.250000e+01,
495,1.406250e+01,6.250000e+00,
496,1.093750e+01,1.562500e+01,
497,2.187500e+01,-3.125000e+00,
498,1.250000e+01,3.125000e+00,
499,3.156250e+02,3.078125e+02,
500,3.078125e+02,2.984375e+02,
501,3.156250e+02,3.046875e+02,
502,3.093750e+02,3.000000e+02,
503,3.171875e+02,3.062500e+02,
504,3.109375e+02,3.015625e+02,
505,3.171875e+02,3.078125e+02,
506,3.109375e+02,3.031250e+02,
507,3.187500e+02,3.078125e+02,
508,3.218750e+02,3.140625e+02,
509,3.078125e+02,2.875000e+02,
510,3.125000e+02,3.031250e+02,
511,3.187500e+02,3.093750e+02,
512,3.125000e+02,3.031250e+02,
513,3.187500e+02,3.093750e+02,
514,3.109375e+02,3.031250e+02,
515,3.187500e+02,3.093750e+02,
516,3.187500e+02,3.093750e+02,
517,3.109375e+02,3.031250e+02,
518,3.187500e+02,3.093750e+02,
519,3.125000e+00,-1.250000e+01,
520,2.187500e+01,1.406250e+01,
521,1.406250e+01,6.250000e+00,
522,2.187500e+01,1.093750e+01,
523,1.406250e+01,4.687500e+00,
524,1.250000e+01,4.687500e+00,
525,3.156250e+02,3.078125e+02,
526,3.078125e+02,2.984375e+02,
527,3.156250e+02,3.046875e+02,
528,3.156250e+02,3.000000e+02,
529,3.093750e+02,3.062500e+02,
530,3.171875e+02,3.015625e+02,
531,3.093750e+02,3.078125e+02,
532,3.109375e+02,3.078125e+02,
533,3.171875e+02,3.015625e+02,
534,3.109375e+02,3.078125e+02,
535,3.171875e+02,3.015625e+02,
536,3.078125e+02,3.125000e+02,
537,3.203125e+02,2.875000e+02,
538,3.171875e+02,3.031250e+02,
539,3.093750e+02,3.078125e+02,
540,3.171875e+02,3.031250e+02,
541,3.109375e+02,3.078125e+02,
542,3.171875e+02,3.078125e+02,
543,3.109375e+02,3.031250e+02,
544,3.171875e+02,3.031250e+02,
545,3.109375e+02,3.078125e+02,
546,3.234375e+02,3.156250e+02,
547,-4.687500e+00,-9.375000e+00,
548,2.187500e+01,1.250000e+01,
549,1.406250e+01,6.250000e+00,
550,1.406250e+01,6.250000e+00,
551,3.171875e+02,3.093750e+02,
552,3.093750e+02,3.000000e+02,
553,3.156250e+02,3.062500e+02,
554,3.156250e+02,3.015625e+02,
555,3.093750e+02,3.062500e+02,
556,3.093750e+02,3.015625e+02,
557,3.171875e+02,3.062500e+02,
558,3.093750e+02,3.015625e+02,
559,3.171875e+02,3.078125e+02,
560,3.109375e+02,3.078125e+02,
561,3.171875e+02,3.015625e+02,
562,3.203125e+02,2.859375e+02,
563,3.078125e+02,3.140625e+02,
564,3.109375e+02,3.078125e+02,
565,3.171875e+02,3.015625e+02,
566,3.109375e+02,3.078125e+02,
567,3.171875e+02,3.015625e+02,
568,3.171875e+02,3.078125e+02,
569,3.093750e+02,3.015625e+02,
570,3.109375e+02,3.078125e+02,
571,3.171875e+02,3.015625e+02,
572,3.234375e+02,3.156250e+02,
573,-9.375000e+00,-9.375000e+00,
574,1.562500e+01,7.812500e+00,
575,3.171875e+02,3.109375e+02,
576,3.156250e+02,3.062500e+02,
577,3.078125e+02,3.000000e+02,
578,3.093750e+02,3.015625e+02,
579,3.171875e+02,3.062500e+02,
580,3.093750e+02,3.062500e+02,
581,3.171875e+02,3.015625e+02,
582,3.093750e+02,3.015625e+02,
583,3.171875e+02,3.078125e+02,
584,3.171875e+02,3.015625e+02,
585,3.093750e+02,3.078125e+02,
586,3.109375e+02,3.078125e+02,
587,3.171875e+02,3.015625e+02,
588,3.171875e+02,3.078125e+02,
589,3.093750e+02,3.015625e+02,
590,3.093750e+02,3.156250e+02,
591,3.187500e+02,2.843750e+02,
592,3.171875e+02,3.078125e+02,
593,3.093750e+02,3.015625e+02,
594,3.093750e+02,3.078125e+02,
595,3.171875e+02,3.015625e+02,
596,3.031250e+02,3.171875e+02,
597,3.234375e+02,2.953125e+02,
598,3.171875e+02,3.078125e+02,
599,3.093750e+02,3.015625e+02,
600,-1.093750e+01,-9.375000e+00,
601,3.187500e+02,3.125000e+02,
602,3.093750e+02,3.015625e+02,
603,3.171875e+02,3.078125e+02,
604,3.109375e+02,3.078125e+02,
605,3.171875e+02,3.015625e+02,
606,3.171875e+02,3.078125e+02,
607,3.093750e+02,3.015625e+02,
608,3.093750e+02,3.078125e+02,
609,3.171875e+02,3.015625e+02,
610,3.171875e+02,3.078125e+02,
611,3.093750e+02,3.015625e+02,
612,3.171875e+02,3.078125e+02,
613,3.093750e+02,3.015625e+02,
614,3.171875e+02,3.078125e+02,
615,3.093750e+02,3.015625e+02,
616,3.171875e+02,3.078125e+02,
617,3.093750e+02,3.015625e+02,
618,3.109375e+02,3.093750e+02,
619,3.171875e+02,3.000000e+02,
620,3.109375e+02,3.031250e+02,
621,3.171875e+02,3.078125e+02,
622,3.250000e+02,3.203125e+02,
623,3.031250e+02,2.953125e+02,
624,3.109375e+02,3.031250e+02,
625,3.171875e+02,3.078125e+02,
626,3.109375e+02,3.031250e+02,
627,3.171875e+02,3.093750e+02,
628,3.171875e+02,3.078125e+02,
629,3.093750e+02,3.031250e+02,
630,3.109375e+02,3.078125e+02,
631,3.171875e+02,3.031250e+02,
632,3.109375e+02,3.031250e+02,
633,3.171875e+02,3.078125e+02,
634,3.171875e+02,3.031250e+02,
635,3.093750e+02,3.078125e+02,
636,3.171875e+02,3.078125e+02,
637,3.093750e+02,3.031250e+02,
638,3.109375e+02,3.031250e+02,
639,3.171875e+02,3.078125e+02,
640,3.109375e+02,3.031250e+02,
